04-Nov-2017 09:40:39:723 INFO  [main]  
04-Nov-2017 09:40:39:739 INFO  [main] ****             Verify successful Application launch.             ***** 
04-Nov-2017 09:40:39:739 INFO  [main]  
04-Nov-2017 09:41:18:006 INFO  [main] Browser Launched and maximized successfully 
04-Nov-2017 09:41:58:974 INFO  [main] Splash page objects initiated successfully 
04-Nov-2017 09:41:58:974 INFO  [main] Waiting for 'SignIn' button to be appeared 
04-Nov-2017 09:42:39:181 INFO  [main] SkySite application lanched successfully. 
04-Nov-2017 09:42:39:181 INFO  [main] ****             -E---N---D-             ***** 
